%YAML 1.1
%TAG !u! tag:unity3d.com,2011:
--- !u!1045 &1
EditorBuildSettings:
  m_ObjectHideFlags: 0
  serializedVersion: 2
  m_Scenes:
  - enabled: 1
    path: Assets/Scenes/Start_Screen.unity
    guid: 02e3c3fcd5cb537428fae93897e1c772
  - enabled: 1
    path: Assets/Scenes/House.unity
    guid: 2cda990e2423bbf4892e6590ba056729
  m_configObjects: {}
